{
  "VOD": [
    {
      "open": 15.34,
      "high": 15.54,
      "low": 15.22,
      "close": 15.46,
      "volume": 6580400,
      "last": 0,
      "adj_high": 0,
      "adj_low": 0,
      "adj_close": 15.46,
      "adj_open": 0,
      "adj_volume": 0,
      "split_factor": 1,
      "dividend": 0,
      "symbol": "VOD",
      "exchange": "XNAS",
      "date": "2022-06-15T02:00:00+02:00"
    },
    {
      "open": 15.49,
      "high": 15.615,
      "low": 15.395,
      "close": 15.52,
      "volume": 12295312,
      "last": 0,
      "adj_high": 0,
      "adj_low": 0,
      "adj_close": 15.52,
      "adj_open": 0,
      "adj_volume": 0,
      "split_factor": 1,
      "dividend": 0,
      "symbol": "VOD",
      "exchange": "XNAS",
      "date": "2022-06-16T02:00:00+02:00"
    },
    {
      "open": 15.61,
      "high": 15.65,
      "low": 15.39,
      "close": 15.49,
      "volume": 10392600,
      "last": 0,
      "adj_high": 0,
      "adj_low": 0,
      "adj_close": 15.49,
      "adj_open": 0,
      "adj_volume": 0,
      "split_factor": 1,
      "dividend": 0,
      "symbol": "VOD",
      "exchange": "XNAS",
      "date": "2022-06-17T02:00:00+02:00"
    },
    {
      "open": 15.76,
      "high": 15.93,
      "low": 15.69,
      "close": 15.865,
      "volume": 6089397,
      "last": 0,
      "adj_high": 0,
      "adj_low": 0,
      "adj_close": 15.865,
      "adj_open": 0,
      "adj_volume": 0,
      "split_factor": 1,
      "dividend": 0,
      "symbol": "VOD",
      "exchange": "XNAS",
      "date": "2022-06-21T02:00:00+02:00"
    },
    {
      "open": 15.52,
      "high": 15.815,
      "low": 15.51,
      "close": 15.67,
      "volume": 7870632,
      "last": 0,
      "adj_high": 0,
      "adj_low": 0,
      "adj_close": 15.67,
      "adj_open": 0,
      "adj_volume": 0,
      "split_factor": 1,
      "dividend": 0,
      "symbol": "VOD",
      "exchange": "XNAS",
      "date": "2022-06-22T02:00:00+02:00"
    },
    {
      "open": 15.67,
      "high": 15.74,
      "low": 15.52,
      "close": 15.59,
      "volume": 6918300,
      "last": 0,
      "adj_high": 0,
      "adj_low": 0,
      "adj_close": 15.59,
      "adj_open": 0,
      "adj_volume": 0,
      "split_factor": 1,
      "dividend": 0,
      "symbol": "VOD",
      "exchange": "XNAS",
      "date": "2022-06-23T02:00:00+02:00"
    },
    {
      "open": 15.69,
      "high": 15.72,
      "low": 15.57,
      "close": 15.66,
      "volume": 7560200,
      "last": 0,
      "adj_high": 0,
      "adj_low": 0,
      "adj_close": 15.66,
      "adj_open": 0,
      "adj_volume": 0,
      "split_factor": 1,
      "dividend": 0,
      "symbol": "VOD",
      "exchange": "XNAS",
      "date": "2022-06-24T02:00:00+02:00"
    },
    {
      "open": 15.73,
      "high": 15.82,
      "low": 15.67,
      "close": 15.74,
      "volume": 3800400,
      "last": 0,
      "adj_high": 0,
      "adj_low": 0,
      "adj_close": 15.74,
      "adj_open": 0,
      "adj_volume": 0,
      "split_factor": 1,
      "dividend": 0,
      "symbol": "VOD",
      "exchange": "XNAS",
      "date": "2022-06-27T02:00:00+02:00"
    },
    {
      "open": 15.8,
      "high": 15.8994,
      "low": 15.68,
      "close": 15.69,
      "volume": 3449043,
      "last": 0,
      "adj_high": 0,
      "adj_low": 0,
      "adj_close": 15.69,
      "adj_open": 0,
      "adj_volume": 0,
      "split_factor": 1,
      "dividend": 0,
      "symbol": "VOD",
      "exchange": "XNAS",
      "date": "2022-06-28T02:00:00+02:00"
    },
    {
      "open": 15.42,
      "high": 15.54,
      "low": 15.36,
      "close": 15.44,
      "volume": 12346100,
      "last": 0,
      "adj_high": 0,
      "adj_low": 0,
      "adj_close": 15.44,
      "adj_open": 0,
      "adj_volume": 0,
      "split_factor": 1,
      "dividend": 0,
      "symbol": "VOD",
      "exchange": "XNAS",
      "date": "2022-06-29T02:00:00+02:00"
    },
    {
      "open": 15.45,
      "high": 15.6,
      "low": 15.37,
      "close": 15.58,
      "volume": 5668100,
      "last": 0,
      "adj_high": 0,
      "adj_low": 0,
      "adj_close": 15.58,
      "adj_open": 0,
      "adj_volume": 0,
      "split_factor": 1,
      "dividend": 0,
      "symbol": "VOD",
      "exchange": "XNAS",
      "date": "2022-06-30T02:00:00+02:00"
    },
    {
      "open": 15.27,
      "high": 15.61,
      "low": 15.23,
      "close": 15.61,
      "volume": 4652800,
      "last": 0,
      "adj_high": 0,
      "adj_low": 0,
      "adj_close": 15.61,
      "adj_open": 0,
      "adj_volume": 0,
      "split_factor": 1,
      "dividend": 0,
      "symbol": "VOD",
      "exchange": "XNAS",
      "date": "2022-07-01T02:00:00+02:00"
    },
    {
      "open": 15.23,
      "high": 15.395,
      "low": 15.125,
      "close": 15.38,
      "volume": 4947715,
      "last": 0,
      "adj_high": 0,
      "adj_low": 0,
      "adj_close": 15.38,
      "adj_open": 0,
      "adj_volume": 0,
      "split_factor": 1,
      "dividend": 0,
      "symbol": "VOD",
      "exchange": "XNAS",
      "date": "2022-07-05T02:00:00+02:00"
    },
    {
      "open": 15.22,
      "high": 15.27,
      "low": 15.11,
      "close": 15.22,
      "volume": 4244000,
      "last": 0,
      "adj_high": 0,
      "adj_low": 0,
      "adj_close": 15.22,
      "adj_open": 0,
      "adj_volume": 0,
      "split_factor": 1,
      "dividend": 0,
      "symbol": "VOD",
      "exchange": "XNAS",
      "date": "2022-07-06T02:00:00+02:00"
    }
  ],
  "BABA": [
    {
      "open": 106.81,
      "high": 108.63,
      "low": 104.3819,
      "close": 108.03,
      "volume": 23624522,
      "last": 0,
      "adj_high": 0,
      "adj_low": 0,
      "adj_close": 108.03,
      "adj_open": 0,
      "adj_volume": 0,
      "split_factor": 1,
      "dividend": 0,
      "symbol": "BABA",
      "exchange": "XNYS",
      "date": "2022-06-15T02:00:00+02:00"
    },
    {
      "open": 102.79,
      "high": 104.91,
      "low": 100.51,
      "close": 101.45,
      "volume": 21926536,
      "last": 0,
      "adj_high": 0,
      "adj_low": 0,
      "adj_close": 101.45,
      "adj_open": 0,
      "adj_volume": 0,
      "split_factor": 1,
      "dividend": 0,
      "symbol": "BABA",
      "exchange": "XNYS",
      "date": "2022-06-16T02:00:00+02:00"
    },
    {
      "open": 112.54,
      "high": 112.75,
      "low": 101.326,
      "close": 102.24,
      "volume": 72967400,
      "last": 0,
      "adj_high": 0,
      "adj_low": 0,
      "adj_close": 102.24,
      "adj_open": 0,
      "adj_volume": 0,
      "split_factor": 1,
      "dividend": 0,
      "symbol": "BABA",
      "exchange": "XNYS",
      "date": "2022-06-17T02:00:00+02:00"
    },
    {
      "open": 105.96,
      "high": 107.062,
      "low": 103.87,
      "close": 106.39,
      "volume": 31860447,
      "last": 0,
      "adj_high": 0,
      "adj_low": 0,
      "adj_close": 106.39,
      "adj_open": 0,
      "adj_volume": 0,
      "split_factor": 1,
      "dividend": 0,
      "symbol": "BABA",
      "exchange": "XNYS",
      "date": "2022-06-21T02:00:00+02:00"
    },
    {
      "open": 104.23,
      "high": 107.1,
      "low": 103.08,
      "close": 105.15,
      "volume": 23866065,
      "last": 0,
      "adj_high": 0,
      "adj_low": 0,
      "adj_close": 105.15,
      "adj_open": 0,
      "adj_volume": 0,
      "split_factor": 1,
      "dividend": 0,
      "symbol": "BABA",
      "exchange": "XNYS",
      "date": "2022-06-22T02:00:00+02:00"
    },
    {
      "open": 109.96,
      "high": 113.0898,
      "low": 108.0811,
      "close": 112.11,
      "volume": 33228155,
      "last": 0,
      "adj_high": 0,
      "adj_low": 0,
      "adj_close": 112.11,
      "adj_open": 0,
      "adj_volume": 0,
      "split_factor": 1,
      "dividend": 0,
      "symbol": "BABA",
      "exchange": "XNYS",
      "date": "2022-06-23T02:00:00+02:00"
    },
    {
      "open": 115.3,
      "high": 118.09,
      "low": 114.3,
      "close": 117.62,
      "volume": 26980800,
      "last": 0,
      "adj_high": 0,
      "adj_low": 0,
      "adj_close": 117.62,
      "adj_open": 0,
      "adj_volume": 0,
      "split_factor": 1,
      "dividend": 0,
      "symbol": "BABA",
      "exchange": "XNYS",
      "date": "2022-06-24T02:00:00+02:00"
    },
    {
      "open": 119.97,
      "high": 121.38,
      "low": 117.88,
      "close": 118.73,
      "volume": 20917613,
      "last": 0,
      "adj_high": 0,
      "adj_low": 0,
      "adj_close": 118.73,
      "adj_open": 0,
      "adj_volume": 0,
      "split_factor": 1,
      "dividend": 0,
      "symbol": "BABA",
      "exchange": "XNYS",
      "date": "2022-06-27T02:00:00+02:00"
    },
    {
      "open": 118.98,
      "high": 120.93,
      "low": 116.51,
      "close": 116.76,
      "volume": 18641403,
      "last": 0,
      "adj_high": 0,
      "adj_low": 0,
      "adj_close": 116.76,
      "adj_open": 0,
      "adj_volume": 0,
      "split_factor": 1,
      "dividend": 0,
      "symbol": "BABA",
      "exchange": "XNYS",
      "date": "2022-06-28T02:00:00+02:00"
    },
    {
      "open": 115.81,
      "high": 117.05,
      "low": 113.75,
      "close": 116.03,
      "volume": 13793934,
      "last": 0,
      "adj_high": 0,
      "adj_low": 0,
      "adj_close": 116.03,
      "adj_open": 0,
      "adj_volume": 0,
      "split_factor": 1,
      "dividend": 0,
      "symbol": "BABA",
      "exchange": "XNYS",
      "date": "2022-06-29T02:00:00+02:00"
    },
    {
      "open": 113.77,
      "high": 114.6,
      "low": 111.38,
      "close": 113.68,
      "volume": 13199513,
      "last": 0,
      "adj_high": 0,
      "adj_low": 0,
      "adj_close": 113.68,
      "adj_open": 0,
      "adj_volume": 0,
      "split_factor": 1,
      "dividend": 0,
      "symbol": "BABA",
      "exchange": "XNYS",
      "date": "2022-06-30T02:00:00+02:00"
    },
    {
      "open": 113.63,
      "high": 116.625,
      "low": 112.92,
      "close": 116,
      "volume": 16667800,
      "last": 0,
      "adj_high": 0,
      "adj_low": 0,
      "adj_close": 116,
      "adj_open": 0,
      "adj_volume": 0,
      "split_factor": 1,
      "dividend": 0,
      "symbol": "BABA",
      "exchange": "XNYS",
      "date": "2022-07-01T02:00:00+02:00"
    },
    {
      "open": 114.51,
      "high": 120.53,
      "low": 112.14,
      "close": 120.13,
      "volume": 20053583,
      "last": 0,
      "adj_high": 0,
      "adj_low": 0,
      "adj_close": 120.13,
      "adj_open": 0,
      "adj_volume": 0,
      "split_factor": 1,
      "dividend": 0,
      "symbol": "BABA",
      "exchange": "XNYS",
      "date": "2022-07-05T02:00:00+02:00"
    },
    {
      "open": 118.93,
      "high": 120,
      "low": 115.51,
      "close": 119.12,
      "volume": 19706192,
      "last": 0,
      "adj_high": 0,
      "adj_low": 0,
      "adj_close": 119.12,
      "adj_open": 0,
      "adj_volume": 0,
      "split_factor": 1,
      "dividend": 0,
      "symbol": "BABA",
      "exchange": "XNYS",
      "date": "2022-07-06T02:00:00+02:00"
    }
  ],
  "GOOG": [
    {
      "open": 2177.99,
      "high": 2241.26,
      "low": 2162.375,
      "close": 2207.8101,
      "volume": 1655700,
      "last": 0,
      "adj_high": 0,
      "adj_low": 0,
      "adj_close": 2207.8101,
      "adj_open": 0,
      "adj_volume": 0,
      "split_factor": 1,
      "dividend": 0,
      "symbol": "GOOG",
      "exchange": "XNAS",
      "date": "2022-06-15T02:00:00+02:00"
    },
    {
      "open": 2162.99,
      "high": 2185.8101,
      "low": 2116.45,
      "close": 2132.72,
      "volume": 1710870,
      "last": 0,
      "adj_high": 0,
      "adj_low": 0,
      "adj_close": 2132.72,
      "adj_open": 0,
      "adj_volume": 0,
      "split_factor": 1,
      "dividend": 0,
      "symbol": "GOOG",
      "exchange": "XNAS",
      "date": "2022-06-16T02:00:00+02:00"
    },
    {
      "open": 2130.7,
      "high": 2184.99,
      "low": 2112.571,
      "close": 2157.3101,
      "volume": 2163500,
      "last": 0,
      "adj_high": 0,
      "adj_low": 0,
      "adj_close": 2157.3101,
      "adj_open": 0,
      "adj_volume": 0,
      "split_factor": 1,
      "dividend": 0,
      "symbol": "GOOG",
      "exchange": "XNAS",
      "date": "2022-06-17T02:00:00+02:00"
    },
    {
      "open": 2194.04,
      "high": 2253.46,
      "low": 2185.8701,
      "close": 2240.3,
      "volume": 1653657,
      "last": 0,
      "adj_high": 0,
      "adj_low": 0,
      "adj_close": 2240.3,
      "adj_open": 0,
      "adj_volume": 0,
      "split_factor": 1,
      "dividend": 0,
      "symbol": "GOOG",
      "exchange": "XNAS",
      "date": "2022-06-21T02:00:00+02:00"
    },
    {
      "open": 2223.26,
      "high": 2275,
      "low": 2214.4856,
      "close": 2240.6799,
      "volume": 1179693,
      "last": 0,
      "adj_high": 0,
      "adj_low": 0,
      "adj_close": 2240.6799,
      "adj_open": 0,
      "adj_volume": 0,
      "split_factor": 1,
      "dividend": 0,
      "symbol": "GOOG",
      "exchange": "XNAS",
      "date": "2022-06-22T02:00:00+02:00"
    },
    {
      "open": 2259,
      "high": 2262.99,
      "low": 2221.01,
      "close": 2253.6899,
      "volume": 1185052,
      "last": 0,
      "adj_high": 0,
      "adj_low": 0,
      "adj_close": 2253.6899,
      "adj_open": 0,
      "adj_volume": 0,
      "split_factor": 1,
      "dividend": 0,
      "symbol": "GOOG",
      "exchange": "XNAS",
      "date": "2022-06-23T02:00:00+02:00"
    },
    {
      "open": 2272.0601,
      "high": 2372.75,
      "low": 2272.0601,
      "close": 2370.76,
      "volume": 1954700,
      "last": 0,
      "adj_high": 0,
      "adj_low": 0,
      "adj_close": 2370.76,
      "adj_open": 0,
      "adj_volume": 0,
      "split_factor": 1,
      "dividend": 0,
      "symbol": "GOOG",
      "exchange": "XNAS",
      "date": "2022-06-24T02:00:00+02:00"
    },
    {
      "open": 2378.7,
      "high": 2385,
      "low": 2320.0149,
      "close": 2332.45,
      "volume": 1641500,
      "last": 0,
      "adj_high": 0,
      "adj_low": 0,
      "adj_close": 2332.45,
      "adj_open": 0,
      "adj_volume": 0,
      "split_factor": 1,
      "dividend": 0,
      "symbol": "GOOG",
      "exchange": "XNAS",
      "date": "2022-06-27T02:00:00+02:00"
    },
    {
      "open": 2327.02,
      "high": 2357.1299,
      "low": 2248.8799,
      "close": 2251.4299,
      "volume": 1411600,
      "last": 0,
      "adj_high": 0,
      "adj_low": 0,
      "adj_close": 2251.4299,
      "adj_open": 0,
      "adj_volume": 0,
      "split_factor": 1,
      "dividend": 0,
      "symbol": "GOOG",
      "exchange": "XNAS",
      "date": "2022-06-28T02:00:00+02:00"
    },
    {
      "open": 2242.97,
      "high": 2273.29,
      "low": 2231.0801,
      "close": 2245.1299,
      "volume": 927500,
      "last": 0,
      "adj_high": 0,
      "adj_low": 0,
      "adj_close": 2245.1299,
      "adj_open": 0,
      "adj_volume": 0,
      "split_factor": 1,
      "dividend": 0,
      "symbol": "GOOG",
      "exchange": "XNAS",
      "date": "2022-06-29T02:00:00+02:00"
    },
    {
      "open": 2209.99,
      "high": 2226.5959,
      "low": 2146.2,
      "close": 2187.45,
      "volume": 1899500,
      "last": 0,
      "adj_high": 0,
      "adj_low": 0,
      "adj_close": 2187.45,
      "adj_open": 0,
      "adj_volume": 0,
      "split_factor": 1,
      "dividend": 0,
      "symbol": "GOOG",
      "exchange": "XNAS",
      "date": "2022-06-30T02:00:00+02:00"
    },
    {
      "open": 2166.74,
      "high": 2196.127,
      "low": 2142.1001,
      "close": 2181.6201,
      "volume": 1550600,
      "last": 0,
      "adj_high": 0,
      "adj_low": 0,
      "adj_close": 2181.6201,
      "adj_open": 0,
      "adj_volume": 0,
      "split_factor": 1,
      "dividend": 0,
      "symbol": "GOOG",
      "exchange": "XNAS",
      "date": "2022-07-01T02:00:00+02:00"
    },
    {
      "open": 2150.29,
      "high": 2281.052,
      "low": 2124.99,
      "close": 2277.74,
      "volume": 1819900,
      "last": 0,
      "adj_high": 0,
      "adj_low": 0,
      "adj_close": 2277.74,
      "adj_open": 0,
      "adj_volume": 0,
      "split_factor": 1,
      "dividend": 0,
      "symbol": "GOOG",
      "exchange": "XNAS",
      "date": "2022-07-05T02:00:00+02:00"
    },
    {
      "open": 2281.8401,
      "high": 2327.04,
      "low": 2245.01,
      "close": 2304.27,
      "volume": 1441300,
      "last": 0,
      "adj_high": 0,
      "adj_low": 0,
      "adj_close": 2304.27,
      "adj_open": 0,
      "adj_volume": 0,
      "split_factor": 1,
      "dividend": 0,
      "symbol": "GOOG",
      "exchange": "XNAS",
      "date": "2022-07-06T02:00:00+02:00"
    }
  ],
  "JPM": [
    {
      "open": 115.62,
      "high": 116.94,
      "low": 113.1683,
      "close": 115.41,
      "volume": 14083548,
      "last": 0,
      "adj_high": 0,
      "adj_low": 0,
      "adj_close": 115.41,
      "adj_open": 0,
      "adj_volume": 0,
      "split_factor": 1,
      "dividend": 0,
      "symbol": "JPM",
      "exchange": "XNYS",
      "date": "2022-06-15T02:00:00+02:00"
    },
    {
      "open": 113.86,
      "high": 114.2593,
      "low": 111.87,
      "close": 113.43,
      "volume": 14562619,
      "last": 0,
      "adj_high": 0,
      "adj_low": 0,
      "adj_close": 113.43,
      "adj_open": 0,
      "adj_volume": 0,
      "split_factor": 1,
      "dividend": 0,
      "symbol": "JPM",
      "exchange": "XNYS",
      "date": "2022-06-16T02:00:00+02:00"
    },
    {
      "open": 113.54,
      "high": 114.63,
      "low": 112.16,
      "close": 113.03,
      "volume": 30778800,
      "last": 0,
      "adj_high": 0,
      "adj_low": 0,
      "adj_close": 113.03,
      "adj_open": 0,
      "adj_volume": 0,
      "split_factor": 1,
      "dividend": 0,
      "symbol": "JPM",
      "exchange": "XNYS",
      "date": "2022-06-17T02:00:00+02:00"
    },
    {
      "open": 115.865,
      "high": 117.03,
      "low": 115.05,
      "close": 115.83,
      "volume": 11680485,
      "last": 0,
      "adj_high": 0,
      "adj_low": 0,
      "adj_close": 115.83,
      "adj_open": 0,
      "adj_volume": 0,
      "split_factor": 1,
      "dividend": 0,
      "symbol": "JPM",
      "exchange": "XNYS",
      "date": "2022-06-21T02:00:00+02:00"
    },
    {
      "open": 114.88,
      "high": 116.1999,
      "low": 114.39,
      "close": 115.18,
      "volume": 9848572,
      "last": 0,
      "adj_high": 0,
      "adj_low": 0,
      "adj_close": 115.18,
      "adj_open": 0,
      "adj_volume": 0,
      "split_factor": 1,
      "dividend": 0,
      "symbol": "JPM",
      "exchange": "XNYS",
      "date": "2022-06-22T02:00:00+02:00"
    },
    {
      "open": 115.01,
      "high": 115.05,
      "low": 111.487,
      "close": 113.92,
      "volume": 11851541,
      "last": 0,
      "adj_high": 0,
      "adj_low": 0,
      "adj_close": 113.92,
      "adj_open": 0,
      "adj_volume": 0,
      "split_factor": 1,
      "dividend": 0,
      "symbol": "JPM",
      "exchange": "XNYS",
      "date": "2022-06-23T02:00:00+02:00"
    },
    {
      "open": 113.23,
      "high": 117.82,
      "low": 112.83,
      "close": 117.32,
      "volume": 14837600,
      "last": 0,
      "adj_high": 0,
      "adj_low": 0,
      "adj_close": 117.32,
      "adj_open": 0,
      "adj_volume": 0,
      "split_factor": 1,
      "dividend": 0,
      "symbol": "JPM",
      "exchange": "XNYS",
      "date": "2022-06-24T02:00:00+02:00"
    },
    {
      "open": 118.06,
      "high": 118.5,
      "low": 115.64,
      "close": 116.38,
      "volume": 11276800,
      "last": 0,
      "adj_high": 0,
      "adj_low": 0,
      "adj_close": 116.38,
      "adj_open": 0,
      "adj_volume": 0,
      "split_factor": 1,
      "dividend": 0,
      "symbol": "JPM",
      "exchange": "XNYS",
      "date": "2022-06-27T02:00:00+02:00"
    },
    {
      "open": 117.67,
      "high": 119.29,
      "low": 115.6,
      "close": 115.82,
      "volume": 11547398,
      "last": 0,
      "adj_high": 0,
      "adj_low": 0,
      "adj_close": 115.82,
      "adj_open": 0,
      "adj_volume": 0,
      "split_factor": 1,
      "dividend": 0,
      "symbol": "JPM",
      "exchange": "XNYS",
      "date": "2022-06-28T02:00:00+02:00"
    },
    {
      "open": 116,
      "high": 116.8,
      "low": 114.73,
      "close": 115.3,
      "volume": 9310161,
      "last": 0,
      "adj_high": 0,
      "adj_low": 0,
      "adj_close": 115.3,
      "adj_open": 0,
      "adj_volume": 0,
      "split_factor": 1,
      "dividend": 0,
      "symbol": "JPM",
      "exchange": "XNYS",
      "date": "2022-06-29T02:00:00+02:00"
    },
    {
      "open": 113.17,
      "high": 114.075,
      "low": 110.94,
      "close": 112.61,
      "volume": 15172611,
      "last": 0,
      "adj_high": 0,
      "adj_low": 0,
      "adj_close": 112.61,
      "adj_open": 0,
      "adj_volume": 0,
      "split_factor": 1,
      "dividend": 0,
      "symbol": "JPM",
      "exchange": "XNYS",
      "date": "2022-06-30T02:00:00+02:00"
    },
    {
      "open": 112.65,
      "high": 114.42,
      "low": 111.16,
      "close": 114.05,
      "volume": 10571400,
      "last": 0,
      "adj_high": 0,
      "adj_low": 0,
      "adj_close": 114.05,
      "adj_open": 0,
      "adj_volume": 0,
      "split_factor": 1,
      "dividend": 0,
      "symbol": "JPM",
      "exchange": "XNYS",
      "date": "2022-07-01T02:00:00+02:00"
    },
    {
      "open": 110.77,
      "high": 112.71,
      "low": 109.3,
      "close": 112.62,
      "volume": 12515590,
      "last": 0,
      "adj_high": 0,
      "adj_low": 0,
      "adj_close": 112.62,
      "adj_open": 0,
      "adj_volume": 0,
      "split_factor": 1,
      "dividend": 0,
      "symbol": "JPM",
      "exchange": "XNYS",
      "date": "2022-07-05T02:00:00+02:00"
    },
    {
      "open": 111.73,
      "high": 112.99,
      "low": 110.785,
      "close": 111.89,
      "volume": 10656197,
      "last": 0,
      "adj_high": 0,
      "adj_low": 0,
      "adj_close": 111.89,
      "adj_open": 0,
      "adj_volume": 0,
      "split_factor": 1,
      "dividend": 0,
      "symbol": "JPM",
      "exchange": "XNYS",
      "date": "2022-07-06T02:00:00+02:00"
    }
  ],
  "AAPL": [
    {
      "open": 133.13,
      "high": 133.89,
      "low": 131.48,
      "close": 132.76,
      "volume": 84545000,
      "last": 0,
      "adj_high": 0,
      "adj_low": 0,
      "adj_close": 132.76,
      "adj_open": 0,
      "adj_volume": 0,
      "split_factor": 1,
      "dividend": 0,
      "symbol": "AAPL",
      "exchange": "XNAS",
      "date": "2022-06-14T02:00:00+02:00"
    },
    {
      "open": 134.29,
      "high": 137.34,
      "low": 132.16,
      "close": 135.43,
      "volume": 91352700,
      "last": 0,
      "adj_high": 0,
      "adj_low": 0,
      "adj_close": 135.43,
      "adj_open": 0,
      "adj_volume": 0,
      "split_factor": 1,
      "dividend": 0,
      "symbol": "AAPL",
      "exchange": "XNAS",
      "date": "2022-06-15T02:00:00+02:00"
    },
    {
      "open": 132.08,
      "high": 132.39,
      "low": 129.07,
      "close": 130.06,
      "volume": 107961508,
      "last": 0,
      "adj_high": 0,
      "adj_low": 0,
      "adj_close": 130.06,
      "adj_open": 0,
      "adj_volume": 0,
      "split_factor": 1,
      "dividend": 0,
      "symbol": "AAPL",
      "exchange": "XNAS",
      "date": "2022-06-16T02:00:00+02:00"
    },
    {
      "open": 130.07,
      "high": 133.08,
      "low": 129.81,
      "close": 131.56,
      "volume": 134118500,
      "last": 0,
      "adj_high": 0,
      "adj_low": 0,
      "adj_close": 131.56,
      "adj_open": 0,
      "adj_volume": 0,
      "split_factor": 1,
      "dividend": 0,
      "symbol": "AAPL",
      "exchange": "XNAS",
      "date": "2022-06-17T02:00:00+02:00"
    },
    {
      "open": 133.42,
      "high": 137.06,
      "low": 133.32,
      "close": 135.87,
      "volume": 80785400,
      "last": 0,
      "adj_high": 0,
      "adj_low": 0,
      "adj_close": 135.87,
      "adj_open": 0,
      "adj_volume": 0,
      "split_factor": 1,
      "dividend": 0,
      "symbol": "AAPL",
      "exchange": "XNAS",
      "date": "2022-06-21T02:00:00+02:00"
    },
    {
      "open": 134.79,
      "high": 137.755,
      "low": 133.91,
      "close": 135.35,
      "volume": 73165480,
      "last": 0,
      "adj_high": 0,
      "adj_low": 0,
      "adj_close": 135.35,
      "adj_open": 0,
      "adj_volume": 0,
      "split_factor": 1,
      "dividend": 0,
      "symbol": "AAPL",
      "exchange": "XNAS",
      "date": "2022-06-22T02:00:00+02:00"
    },
    {
      "open": 136.82,
      "high": 138.59,
      "low": 135.63,
      "close": 138.27,
      "volume": 72330300,
      "last": 0,
      "adj_high": 0,
      "adj_low": 0,
      "adj_close": 138.27,
      "adj_open": 0,
      "adj_volume": 0,
      "split_factor": 1,
      "dividend": 0,
      "symbol": "AAPL",
      "exchange": "XNAS",
      "date": "2022-06-23T02:00:00+02:00"
    },
    {
      "open": 139.9,
      "high": 141.91,
      "low": 139.77,
      "close": 141.66,
      "volume": 89116837,
      "last": 0,
      "adj_high": 0,
      "adj_low": 0,
      "adj_close": 141.66,
      "adj_open": 0,
      "adj_volume": 0,
      "split_factor": 1,
      "dividend": 0,
      "symbol": "AAPL",
      "exchange": "XNAS",
      "date": "2022-06-24T02:00:00+02:00"
    },
    {
      "open": 142.7,
      "high": 143.49,
      "low": 140.97,
      "close": 141.66,
      "volume": 70149200,
      "last": 0,
      "adj_high": 0,
      "adj_low": 0,
      "adj_close": 141.66,
      "adj_open": 0,
      "adj_volume": 0,
      "split_factor": 1,
      "dividend": 0,
      "symbol": "AAPL",
      "exchange": "XNAS",
      "date": "2022-06-27T02:00:00+02:00"
    },
    {
      "open": 142.13,
      "high": 143.42,
      "low": 137.32,
      "close": 137.44,
      "volume": 67083400,
      "last": 0,
      "adj_high": 0,
      "adj_low": 0,
      "adj_close": 137.44,
      "adj_open": 0,
      "adj_volume": 0,
      "split_factor": 1,
      "dividend": 0,
      "symbol": "AAPL",
      "exchange": "XNAS",
      "date": "2022-06-28T02:00:00+02:00"
    },
    {
      "open": 137.46,
      "high": 140.67,
      "low": 136.67,
      "close": 139.23,
      "volume": 66242411,
      "last": 0,
      "adj_high": 0,
      "adj_low": 0,
      "adj_close": 139.23,
      "adj_open": 0,
      "adj_volume": 0,
      "split_factor": 1,
      "dividend": 0,
      "symbol": "AAPL",
      "exchange": "XNAS",
      "date": "2022-06-29T02:00:00+02:00"
    },
    {
      "open": 137.25,
      "high": 138.37,
      "low": 133.77,
      "close": 136.72,
      "volume": 98867400,
      "last": 0,
      "adj_high": 0,
      "adj_low": 0,
      "adj_close": 136.72,
      "adj_open": 0,
      "adj_volume": 0,
      "split_factor": 1,
      "dividend": 0,
      "symbol": "AAPL",
      "exchange": "XNAS",
      "date": "2022-06-30T02:00:00+02:00"
    },
    {
      "open": 136.04,
      "high": 139.04,
      "low": 135.66,
      "close": 138.93,
      "volume": 71007500,
      "last": 0,
      "adj_high": 0,
      "adj_low": 0,
      "adj_close": 138.93,
      "adj_open": 0,
      "adj_volume": 0,
      "split_factor": 1,
      "dividend": 0,
      "symbol": "AAPL",
      "exchange": "XNAS",
      "date": "2022-07-01T02:00:00+02:00"
    },
    {
      "open": 137.77,
      "high": 141.61,
      "low": 136.935,
      "close": 141.56,
      "volume": 73429641,
      "last": 0,
      "adj_high": 0,
      "adj_low": 0,
      "adj_close": 141.56,
      "adj_open": 0,
      "adj_volume": 0,
      "split_factor": 1,
      "dividend": 0,
      "symbol": "AAPL",
      "exchange": "XNAS",
      "date": "2022-07-05T02:00:00+02:00"
    },
    {
      "open": 141.35,
      "high": 144.12,
      "low": 141.08,
      "close": 142.92,
      "volume": 73972200,
      "last": 0,
      "adj_high": 0,
      "adj_low": 0,
      "adj_close": 142.92,
      "adj_open": 0,
      "adj_volume": 0,
      "split_factor": 1,
      "dividend": 0,
      "symbol": "AAPL",
      "exchange": "XNAS",
      "date": "2022-07-06T02:00:00+02:00"
    }
  ],
  "MSFT": [
    {
      "open": 248.31,
      "high": 255.3,
      "low": 246.42,
      "close": 251.76,
      "volume": 33073500,
      "last": 0,
      "adj_high": 0,
      "adj_low": 0,
      "adj_close": 251.76,
      "adj_open": 0,
      "adj_volume": 0,
      "split_factor": 1,
      "dividend": 0,
      "symbol": "MSFT",
      "exchange": "XNAS",
      "date": "2022-06-15T02:00:00+02:00"
    },
    {
      "open": 245.98,
      "high": 247.4174,
      "low": 243.03,
      "close": 244.97,
      "volume": 31118528,
      "last": 0,
      "adj_high": 0,
      "adj_low": 0,
      "adj_close": 244.97,
      "adj_open": 0,
      "adj_volume": 0,
      "split_factor": 1,
      "dividend": 0,
      "symbol": "MSFT",
      "exchange": "XNAS",
      "date": "2022-06-16T02:00:00+02:00"
    },
    {
      "open": 244.7,
      "high": 250.5,
      "low": 244.03,
      "close": 247.65,
      "volume": 42800400,
      "last": 0,
      "adj_high": 0,
      "adj_low": 0,
      "adj_close": 247.65,
      "adj_open": 0,
      "adj_volume": 0,
      "split_factor": 1,
      "dividend": 0,
      "symbol": "MSFT",
      "exchange": "XNAS",
      "date": "2022-06-17T02:00:00+02:00"
    },
    {
      "open": 250.26,
      "high": 254.75,
      "low": 249.51,
      "close": 253.74,
      "volume": 29913000,
      "last": 0,
      "adj_high": 0,
      "adj_low": 0,
      "adj_close": 253.74,
      "adj_open": 0,
      "adj_volume": 0,
      "split_factor": 1,
      "dividend": 0,
      "symbol": "MSFT",
      "exchange": "XNAS",
      "date": "2022-06-21T02:00:00+02:00"
    },
    {
      "open": 251.89,
      "high": 257.17,
      "low": 250.38,
      "close": 253.13,
      "volume": 25931728,
      "last": 0,
      "adj_high": 0,
      "adj_low": 0,
      "adj_close": 253.13,
      "adj_open": 0,
      "adj_volume": 0,
      "split_factor": 1,
      "dividend": 0,
      "symbol": "MSFT",
      "exchange": "XNAS",
      "date": "2022-06-22T02:00:00+02:00"
    },
    {
      "open": 255.57,
      "high": 259.37,
      "low": 253.63,
      "close": 258.86,
      "volume": 25844400,
      "last": 0,
      "adj_high": 0,
      "adj_low": 0,
      "adj_close": 258.86,
      "adj_open": 0,
      "adj_volume": 0,
      "split_factor": 1,
      "dividend": 0,
      "symbol": "MSFT",
      "exchange": "XNAS",
      "date": "2022-06-23T02:00:00+02:00"
    },
    {
      "open": 261.81,
      "high": 267.98,
      "low": 261.72,
      "close": 267.7,
      "volume": 33900700,
      "last": 0,
      "adj_high": 0,
      "adj_low": 0,
      "adj_close": 267.7,
      "adj_open": 0,
      "adj_volume": 0,
      "split_factor": 1,
      "dividend": 0,
      "symbol": "MSFT",
      "exchange": "XNAS",
      "date": "2022-06-24T02:00:00+02:00"
    },
    {
      "open": 268.21,
      "high": 268.3,
      "low": 263.28,
      "close": 264.89,
      "volume": 24600800,
      "last": 0,
      "adj_high": 0,
      "adj_low": 0,
      "adj_close": 264.89,
      "adj_open": 0,
      "adj_volume": 0,
      "split_factor": 1,
      "dividend": 0,
      "symbol": "MSFT",
      "exchange": "XNAS",
      "date": "2022-06-27T02:00:00+02:00"
    },
    {
      "open": 263.98,
      "high": 266.91,
      "low": 256.32,
      "close": 256.48,
      "volume": 27295500,
      "last": 0,
      "adj_high": 0,
      "adj_low": 0,
      "adj_close": 256.48,
      "adj_open": 0,
      "adj_volume": 0,
      "split_factor": 1,
      "dividend": 0,
      "symbol": "MSFT",
      "exchange": "XNAS",
      "date": "2022-06-28T02:00:00+02:00"
    },
    {
      "open": 257.59,
      "high": 261.97,
      "low": 255.76,
      "close": 260.26,
      "volume": 20042400,
      "last": 0,
      "adj_high": 0,
      "adj_low": 0,
      "adj_close": 260.26,
      "adj_open": 0,
      "adj_volume": 0,
      "split_factor": 1,
      "dividend": 0,
      "symbol": "MSFT",
      "exchange": "XNAS",
      "date": "2022-06-29T02:00:00+02:00"
    },
    {
      "open": 257.05,
      "high": 259.53,
      "low": 252.9,
      "close": 256.83,
      "volume": 31709800,
      "last": 0,
      "adj_high": 0,
      "adj_low": 0,
      "adj_close": 256.83,
      "adj_open": 0,
      "adj_volume": 0,
      "split_factor": 1,
      "dividend": 0,
      "symbol": "MSFT",
      "exchange": "XNAS",
      "date": "2022-06-30T02:00:00+02:00"
    },
    {
      "open": 256.39,
      "high": 259.77,
      "low": 254.61,
      "close": 259.58,
      "volume": 22825200,
      "last": 0,
      "adj_high": 0,
      "adj_low": 0,
      "adj_close": 259.58,
      "adj_open": 0,
      "adj_volume": 0,
      "split_factor": 1,
      "dividend": 0,
      "symbol": "MSFT",
      "exchange": "XNAS",
      "date": "2022-07-01T02:00:00+02:00"
    },
    {
      "open": 256.16,
      "high": 262.98,
      "low": 254.74,
      "close": 262.85,
      "volume": 22941000,
      "last": 0,
      "adj_high": 0,
      "adj_low": 0,
      "adj_close": 262.85,
      "adj_open": 0,
      "adj_volume": 0,
      "split_factor": 1,
      "dividend": 0,
      "symbol": "MSFT",
      "exchange": "XNAS",
      "date": "2022-07-05T02:00:00+02:00"
    },
    {
      "open": 263.75,
      "high": 267.99,
      "low": 262.4,
      "close": 266.21,
      "volume": 23810300,
      "last": 0,
      "adj_high": 0,
      "adj_low": 0,
      "adj_close": 266.21,
      "adj_open": 0,
      "adj_volume": 0,
      "split_factor": 1,
      "dividend": 0,
      "symbol": "MSFT",
      "exchange": "XNAS",
      "date": "2022-07-06T02:00:00+02:00"
    }
  ],
  "AMZN": [
    {
      "open": 104.19,
      "high": 104.87,
      "low": 101.43,
      "close": 102.31,
      "volume": 69728761,
      "last": 0,
      "adj_high": 0,
      "adj_low": 0,
      "adj_close": 102.31,
      "adj_open": 0,
      "adj_volume": 0,
      "split_factor": 1,
      "dividend": 0,
      "symbol": "AMZN",
      "exchange": "XNAS",
      "date": "2022-06-14T02:00:00+02:00"
    },
    {
      "open": 103.86,
      "high": 109.06,
      "low": 103.53,
      "close": 107.67,
      "volume": 85011060,
      "last": 0,
      "adj_high": 0,
      "adj_low": 0,
      "adj_close": 107.67,
      "adj_open": 0,
      "adj_volume": 0,
      "split_factor": 1,
      "dividend": 0,
      "symbol": "AMZN",
      "exchange": "XNAS",
      "date": "2022-06-15T02:00:00+02:00"
    },
    {
      "open": 104.47,
      "high": 104.58,
      "low": 102.01,
      "close": 103.66,
      "volume": 82186301,
      "last": 0,
      "adj_high": 0,
      "adj_low": 0,
      "adj_close": 103.66,
      "adj_open": 0,
      "adj_volume": 0,
      "split_factor": 1,
      "dividend": 0,
      "symbol": "AMZN",
      "exchange": "XNAS",
      "date": "2022-06-16T02:00:00+02:00"
    },
    {
      "open": 102.8,
      "high": 106.98,
      "low": 102.51,
      "close": 106.22,
      "volume": 99399000,
      "last": 0,
      "adj_high": 0,
      "adj_low": 0,
      "adj_close": 106.22,
      "adj_open": 0,
      "adj_volume": 0,
      "split_factor": 1,
      "dividend": 0,
      "symbol": "AMZN",
      "exchange": "XNAS",
      "date": "2022-06-17T02:00:00+02:00"
    },
    {
      "open": 108.2,
      "high": 111.6299,
      "low": 103.56,
      "close": 108.68,
      "volume": 70901250,
      "last": 0,
      "adj_high": 0,
      "adj_low": 0,
      "adj_close": 108.68,
      "adj_open": 0,
      "adj_volume": 0,
      "split_factor": 1,
      "dividend": 0,
      "symbol": "AMZN",
      "exchange": "XNAS",
      "date": "2022-06-21T02:00:00+02:00"
    },
    {
      "open": 108.2,
      "high": 112.13,
      "low": 107.02,
      "close": 108.95,
      "volume": 60040131,
      "last": 0,
      "adj_high": 0,
      "adj_low": 0,
      "adj_close": 108.95,
      "adj_open": 0,
      "adj_volume": 0,
      "split_factor": 1,
      "dividend": 0,
      "symbol": "AMZN",
      "exchange": "XNAS",
      "date": "2022-06-22T02:00:00+02:00"
    },
    {
      "open": 110.39,
      "high": 113,
      "low": 107.93,
      "close": 112.44,
      "volume": 64345300,
      "last": 0,
      "adj_high": 0,
      "adj_low": 0,
      "adj_close": 112.44,
      "adj_open": 0,
      "adj_volume": 0,
      "split_factor": 1,
      "dividend": 0,
      "symbol": "AMZN",
      "exchange": "XNAS",
      "date": "2022-06-23T02:00:00+02:00"
    },
    {
      "open": 112.38,
      "high": 116.71,
      "low": 111.43,
      "close": 116.46,
      "volume": 69793000,
      "last": 0,
      "adj_high": 0,
      "adj_low": 0,
      "adj_close": 116.46,
      "adj_open": 0,
      "adj_volume": 0,
      "split_factor": 1,
      "dividend": 0,
      "symbol": "AMZN",
      "exchange": "XNAS",
      "date": "2022-06-24T02:00:00+02:00"
    },
    {
      "open": 117.09,
      "high": 117.98,
      "low": 112.7,
      "close": 113.22,
      "volume": 62071500,
      "last": 0,
      "adj_high": 0,
      "adj_low": 0,
      "adj_close": 113.22,
      "adj_open": 0,
      "adj_volume": 0,
      "split_factor": 1,
      "dividend": 0,
      "symbol": "AMZN",
      "exchange": "XNAS",
      "date": "2022-06-27T02:00:00+02:00"
    },
    {
      "open": 113.5,
      "high": 114.85,
      "low": 107.13,
      "close": 107.4,
      "volume": 75172028,
      "last": 0,
      "adj_high": 0,
      "adj_low": 0,
      "adj_close": 107.4,
      "adj_open": 0,
      "adj_volume": 0,
      "split_factor": 1,
      "dividend": 0,
      "symbol": "AMZN",
      "exchange": "XNAS",
      "date": "2022-06-28T02:00:00+02:00"
    },
    {
      "open": 107.38,
      "high": 110.99,
      "low": 106.91,
      "close": 108.92,
      "volume": 66375341,
      "last": 0,
      "adj_high": 0,
      "adj_low": 0,
      "adj_close": 108.92,
      "adj_open": 0,
      "adj_volume": 0,
      "split_factor": 1,
      "dividend": 0,
      "symbol": "AMZN",
      "exchange": "XNAS",
      "date": "2022-06-29T02:00:00+02:00"
    },
    {
      "open": 108.11,
      "high": 108.18,
      "low": 102.52,
      "close": 106.21,
      "volume": 97601900,
      "last": 0,
      "adj_high": 0,
      "adj_low": 0,
      "adj_close": 106.21,
      "adj_open": 0,
      "adj_volume": 0,
      "split_factor": 1,
      "dividend": 0,
      "symbol": "AMZN",
      "exchange": "XNAS",
      "date": "2022-06-30T02:00:00+02:00"
    },
    {
      "open": 106.29,
      "high": 109.75,
      "low": 105.85,
      "close": 109.56,
      "volume": 72952000,
      "last": 0,
      "adj_high": 0,
      "adj_low": 0,
      "adj_close": 109.56,
      "adj_open": 0,
      "adj_volume": 0,
      "split_factor": 1,
      "dividend": 0,
      "symbol": "AMZN",
      "exchange": "XNAS",
      "date": "2022-07-01T02:00:00+02:00"
    },
    {
      "open": 107.6,
      "high": 114.07,
      "low": 106.33,
      "close": 113.5,
      "volume": 76684414,
      "last": 0,
      "adj_high": 0,
      "adj_low": 0,
      "adj_close": 113.5,
      "adj_open": 0,
      "adj_volume": 0,
      "split_factor": 1,
      "dividend": 0,
      "symbol": "AMZN",
      "exchange": "XNAS",
      "date": "2022-07-05T02:00:00+02:00"
    },
    {
      "open": 113.21,
      "high": 115.48,
      "low": 112.01,
      "close": 114.33,
      "volume": 66958884,
      "last": 0,
      "adj_high": 0,
      "adj_low": 0,
      "adj_close": 114.33,
      "adj_open": 0,
      "adj_volume": 0,
      "split_factor": 1,
      "dividend": 0,
      "symbol": "AMZN",
      "exchange": "XNAS",
      "date": "2022-07-06T02:00:00+02:00"
    }
  ]
}